…
deaths_summary <- deaths %>%
  group_by(Name.Alias) %>%
  summarize(Total_Deaths = sum(Death == "yes", na.rm = TRUE))


print(deaths_summary)
```

    ## # A tibble: 163 × 2
    ##    Name.Alias              Total_Deaths
    ##    <chr>                          <int>
    ##  1 ""                                 7
    ##  2 "\"Giulietta Nefaria\""            1
    ##  3 "Adam"                             1
    ##  4 "Adam Brashear"                    0
    ##  5 "Alani Ryan"                       0
    ##  6 "Alex Summers"                     0
    ##  7 "Alexis"                           0
    ##  8 "Alias: Jonas"                     1
    ##  9 "Amadeus Cho"                      0
    ## 10 "America Chavez"                   0
    ## # ℹ 153 more rows
…
